{
    "name": "Schwarzenegger",
    "tag": "TalentSolutis",
    "pilot": "MarivaldoJunior",
    "mainFile": "TalentSolutis/robot/Schwarzenegger.java",
    "supportFiles": [
        "TalentSolutis/enemy/EnemyBot.java",
        "TalentSolutis/enemy/AdvancedEnemyBot.java"]
}
